{
    "name": "Procedimento",
    "fields": [
        {
            "fieldName": "data",
            "fieldType": "Instant",
            "fieldValidateRules": [
                "required"
            ]
        },
        {
            "fieldName": "descricao",
            "fieldType": "String"
        }
    ],
    "relationships": [
        {
            "relationshipType": "many-to-one",
            "otherEntityName": "professor",
            "otherEntityRelationshipName": "procedimento",
            "relationshipName": "professor",
            "otherEntityField": "id"
        },
        {
            "relationshipType": "many-to-one",
            "otherEntityName": "tipoProcedimento",
            "otherEntityRelationshipName": "procedimento",
            "relationshipName": "tipo",
            "otherEntityField": "id"
        },
        {
            "relationshipType": "many-to-one",
            "otherEntityName": "aluno",
            "otherEntityRelationshipName": "procedimentos",
            "relationshipName": "aluno",
            "otherEntityField": "id"
        }
    ],
    "changelogDate": "20190822203936",
    "entityTableName": "procedimento",
    "dto": "no",
    "pagination": "infinite-scroll",
    "service": "no",
    "jpaMetamodelFiltering": false,
    "fluentMethods": true,
    "clientRootFolder": "",
    "applications": "*"
}